jana/Documents/Desktop/DE lab/exp3/simulation/qsim/exp3.msim.vcd
$comment
	File created using the following command:
		vcd file exp3.msim.vcd -direction
$end
$date
	Tue Nov 19 18:16:20 2024
$end
$version
	ModelSim Version 10.1d
$end
$timescale
	1ps
$end
$scope module exp3_vlg_vec_tst $end
$var reg 1 ! a $end
$var reg 1 " b $end
$var reg 1 # cin $end
$var wire 1 $ cout $end
$var wire 1 % sum $end
$var wire 1 & sampler $end
$scope module i1 $end
$var wire 1 ' gnd $end
$var wire 1 ( vcc $end
$var wire 1 ) unknown $end
$var tri1 1 * devclrn $end
$var tri1 1 + devpor $end
$var tri1 1 , devoe $end
$var wire 1 - ~QUARTUS_CREATED_GND~I_combout $end
$var wire 1 . a~input_o $end
$var wire 1 / b~input_o $end
$var wire 1 0 cin~input_o $end
$var wire 1 1 sum~0_combout $end
$var wire 1 2 cout~0_combout $end
$upscope $end
$upscope $end
$enddefinitions $end
#0
$dumpvars
0!
0"
0#
0$
0%
x&
0'
1(
x)
1*
1+
1,
0-
0.
0/
00
01
02
$end
#10000
1!
1.
0&
11
1%
#20000
0!
0.
1&
01
0%
#30000
1"
1!
1/
1.
0&
12
1$
#40000
0!
0.
1&
11
02
1%
0$
#50000
1!
1.
0&
01
12
0%
1$
#60000
0"
0!
0/
0.
1&
02
0$
#70000
1!
1.
0&
11
1%
#80000
0!
0.
1&
01
0%
#90000
1"
1!
1/
1.
0&
12
1$
#100000
0!
0.
1&
11
02
1%
0$
#110000
1!
1.
0&
01
12
0%
1$
#120000
0"
0!
0/
0.
1&
02
0$
#130000
1!
1.
0&
11
1%
#140000
0!
0.
1&
01
0%
#150000
1"
1!
1/
1.
0&
12
1$
#160000
0!
0.
1&
11
02
1%
0$
#170000
1!
1.
0&
01
12
0%
1$
#180000
0"
0!
0/
0.
1&
02
0$
#190000
1!
1.
0&
11
1%
#200000
0!
0.
1&
01
0%
#210000
1"
1!
1/
1.
0&
12
1$
#220000
0!
0.
1&
11
02
1%
0$
#230000
1!
1.
0&
01
12
0%
1$
#240000
0"
0!
0/
0.
1&
02
0$
#250000
1!
1.
0&
11
1%
#260000
0!
0.
1&
01
0%
#270000
1"
1!
1/
1.
0&
12
1$
#280000
0!
0.
1&
11
02
1%
0$
#290000
1!
1.
0&
01
12
0%
1$
