jana/Documents/Desktop/DE lab/exp1/simulation/qsim/exp1.msim.vcd
$comment
	File created using the following command:
		vcd file exp1.msim.vcd -direction
$end
$date
	Mon Nov 25 17:43:08 2024
$end
$version
	ModelSim Version 10.1d
$end
$timescale
	1ps
$end
$scope module exp1_vlg_vec_tst $end
$var reg 1 ! a $end
$var reg 1 " b $end
$var wire 1 # f1 $end
$var wire 1 $ f2 $end
$var wire 1 % f3 $end
$var wire 1 & f4 $end
$var wire 1 ' f5 $end
$var wire 1 ( f6 $end
$var wire 1 ) f7 $end
$var wire 1 * sampler $end
$scope module i1 $end
$var wire 1 + gnd $end
$var wire 1 , vcc $end
$var wire 1 - unknown $end
$var tri1 1 . devclrn $end
$var tri1 1 / devpor $end
$var tri1 1 0 devoe $end
$var wire 1 1 ~QUARTUS_CREATED_GND~I_combout $end
$var wire 1 2 b~input_o $end
$var wire 1 3 a~input_o $end
$var wire 1 4 f1~0_combout $end
$var wire 1 5 f2~0_combout $end
$var wire 1 6 f6~0_combout $end
$upscope $end
$upscope $end
$enddefinitions $end
#0
$dumpvars
0!
0"
0#
0$
1%
1&
1'
0(
1)
x*
0+
1,
x-
1.
1/
10
01
02
03
04
05
06
$end
#10000
1"
12
0*
15
16
1$
1(
0'
0)
#20000
0"
02
1*
05
06
0$
0(
1'
1)
#30000
1!
1"
13
12
0*
0%
14
15
1#
1$
0&
0'
#40000
0"
02
1*
04
16
0#
1(
1&
0)
#50000
1"
12
0*
14
06
1#
0(
0&
1)
#60000
0!
0"
03
02
1*
1%
04
05
0#
0$
1&
1'
#70000
1"
12
0*
15
16
1$
1(
0'
0)
#80000
0"
02
1*
05
06
0$
0(
1'
1)
#90000
1!
1"
13
12
0*
0%
14
15
1#
1$
0&
0'
#100000
0"
02
1*
04
16
0#
1(
1&
0)
#110000
1"
12
0*
14
06
1#
0(
0&
1)
#120000
0!
0"
03
02
1*
1%
04
05
0#
0$
1&
1'
#130000
1"
12
0*
15
16
1$
1(
0'
0)
#140000
0"
02
1*
05
06
0$
0(
1'
1)
#150000
1!
1"
13
12
0*
0%
14
15
1#
1$
0&
0'
#160000
0"
02
1*
04
16
0#
1(
1&
0)
#170000
1"
12
0*
14
06
1#
0(
0&
1)
#180000
0!
0"
03
02
1*
1%
04
05
0#
0$
1&
1'
#190000
1"
12
0*
15
16
1$
1(
0'
0)
#200000
0"
02
1*
05
06
0$
0(
1'
1)
#210000
1!
1"
13
12
0*
0%
14
15
1#
1$
0&
0'
#220000
0"
02
1*
04
16
0#
1(
1&
0)
#230000
1"
12
0*
14
06
1#
0(
0&
1)
#240000
0!
0"
03
02
1*
1%
04
05
0#
0$
1&
1'
#250000
1"
12
0*
15
16
1$
1(
0'
0)
#260000
0"
02
1*
05
06
0$
0(
1'
1)
#270000
1!
1"
13
12
0*
0%
14
15
1#
1$
0&
0'
#280000
0"
02
1*
04
16
0#
1(
1&
0)
#290000
1"
12
0*
14
06
1#
0(
0&
1)
