jana/Documents/Desktop/DE lab/exp4/simulation/qsim/exp4.msim.vcd
$comment
	File created using the following command:
		vcd file exp4.msim.vcd -direction
$end
$date
	Mon Nov 25 20:57:22 2024
$end
$version
	ModelSim Version 10.1d
$end
$timescale
	1ps
$end
$scope module exp4_vlg_vec_tst $end
$var reg 1 ! a $end
$var reg 1 " b $end
$var reg 1 # bin $end
$var wire 1 $ bo $end
$var wire 1 % df $end
$var wire 1 & sampler $end
$scope module i1 $end
$var wire 1 ' gnd $end
$var wire 1 ( vcc $end
$var wire 1 ) unknown $end
$var tri1 1 * devclrn $end
$var tri1 1 + devpor $end
$var tri1 1 , devoe $end
$var wire 1 - ~QUARTUS_CREATED_GND~I_combout $end
$var wire 1 . a~input_o $end
$var wire 1 / b~input_o $end
$var wire 1 0 bin~input_o $end
$var wire 1 1 df~0_combout $end
$var wire 1 2 bo~0_combout $end
$upscope $end
$upscope $end
$enddefinitions $end
#0
$dumpvars
0!
0"
0#
0$
0%
x&
0'
1(
x)
1*
1+
1,
0-
0.
0/
00
01
02
$end
#10000
1#
10
0&
11
12
1%
1$
#20000
1"
0#
1/
00
1&
#30000
1!
1#
1.
10
0&
#40000
0"
0#
0/
00
1&
02
0$
#50000
1#
10
0&
01
0%
#60000
0!
1"
0#
0.
1/
00
1&
11
12
1%
1$
#70000
1#
10
0&
01
0%
#80000
0"
0#
0/
00
1&
02
0$
#90000
1!
1#
1.
10
0&
#100000
1"
0#
1/
00
1&
#110000
1#
10
0&
11
12
1%
1$
#120000
0!
0"
0#
0.
0/
00
1&
01
02
0%
0$
#130000
1#
10
0&
11
12
1%
1$
#140000
1"
0#
1/
00
1&
#150000
1!
1#
1.
10
0&
#160000
0"
0#
0/
00
1&
02
0$
#170000
1#
10
0&
01
0%
#180000
0!
1"
0#
0.
1/
00
1&
11
12
1%
1$
#190000
1#
10
0&
01
0%
#200000
0"
0#
0/
00
1&
02
0$
#210000
1!
1#
1.
10
0&
#220000
1"
0#
1/
00
1&
#230000
1#
10
0&
11
12
1%
1$
#240000
0!
0"
0#
0.
0/
00
1&
01
02
0%
0$
#250000
1#
10
0&
11
12
1%
1$
#260000
1"
0#
1/
00
1&
#270000
1!
1#
1.
10
0&
#280000
0"
0#
0/
00
1&
02
0$
#290000
1#
10
0&
01
0%
