jana/Documents/Desktop/DE lab/exp2/simulation/qsim/exp2.msim.vcd
$comment
	File created using the following command:
		vcd file exp2.msim.vcd -direction
$end
$date
	Mon Nov 25 20:38:21 2024
$end
$version
	ModelSim Version 10.1d
$end
$timescale
	1ps
$end
$scope module exp2_vlg_vec_tst $end
$var reg 1 ! a $end
$var reg 1 " b $end
$var reg 1 # c $end
$var reg 1 $ d $end
$var wire 1 % f1 $end
$var wire 1 & sampler $end
$scope module i1 $end
$var wire 1 ' gnd $end
$var wire 1 ( vcc $end
$var wire 1 ) unknown $end
$var tri1 1 * devclrn $end
$var tri1 1 + devpor $end
$var tri1 1 , devoe $end
$var wire 1 - f1~output_o $end
$var wire 1 . d~input_o $end
$var wire 1 / a~input_o $end
$var wire 1 0 b~input_o $end
$var wire 1 1 c~input_o $end
$var wire 1 2 f1~0_combout $end
$upscope $end
$upscope $end
$enddefinitions $end
#0
$dumpvars
0!
0"
0#
0$
1%
x&
0'
1(
x)
1*
1+
1,
1-
0.
0/
00
01
12
$end
#10000
1#
11
0&
#20000
1"
1$
0#
10
1.
01
1&
#30000
1!
1#
1/
11
0&
02
0-
0%
#40000
0"
0$
0#
00
0.
01
1&
12
1-
1%
#50000
1#
11
0&
#60000
0!
1"
1$
0#
0/
10
1.
01
1&
#70000
1#
11
0&
#80000
0"
0$
0#
00
0.
01
1&
#90000
1!
1#
1/
11
0&
#100000
1"
1$
0#
10
1.
01
1&
#110000
1#
11
0&
02
0-
0%
#120000
0!
0"
0$
0#
0/
00
0.
01
1&
12
1-
1%
#130000
1#
11
0&
#140000
1"
1$
0#
10
1.
01
1&
#150000
1!
1#
1/
11
0&
02
0-
0%
#160000
0"
0$
0#
00
0.
01
1&
12
1-
1%
#170000
1#
11
0&
#180000
0!
1"
1$
0#
0/
10
1.
01
1&
#190000
1#
11
0&
#200000
0"
0$
0#
00
0.
01
1&
#210000
1!
1#
1/
11
0&
#220000
1"
1$
0#
10
1.
01
1&
#230000
1#
11
0&
02
0-
0%
#240000
0!
0"
0$
0#
0/
00
0.
01
1&
12
1-
1%
#250000
1#
11
0&
#260000
1"
1$
0#
10
1.
01
1&
#270000
1!
1#
1/
11
0&
02
0-
0%
#280000
0"
0$
0#
00
0.
01
1&
12
1-
1%
#290000
1#
11
0&
